 [
        {
            "id": 1,
            "created_at": "2017-11-16 00:00:00",
            "updated_at": "2017-11-15 00:00:00",
            "title": " Théâtre du Rond-Point,",
            "description": "Coup de théâtre à Paris ! La rentrée culturelle sur scène s’illustre à nouveau par de belles surprises. Lumineuses, légères, profondes, rieuses ou mélancoliques, les pièces de théâtre de la rentrée charment et enthousiasment les spectateurs. Plus de 100 salles parisiennes offrent des représentations de théâtre, parmi elles : la Comédie Française, le Théâtre du Rond-Point, le Théâtre de la Michodière, le Théâtre des Bouffes Parisiens, le Théâtre  Edouard VII… Il y en a pour tous les goûts !",
            "price": 20,
            "places": "klhkjhjk",
            "placesDispo": "lkhjkjk",
            "eventDate": "2010-11-22",
            "eventHour": "13:28:00",
            "DatePaymentDeadline": "2017-11-09 00:00:00",
            "status": "terminer",
            "category_id": 4,
            "user_id": 2,
            "image_id": 48,
            "image": {
                "id": 48,
                "created_at": "2017-12-21 00:00:00",
                "updated_at": "2017-12-19 00:00:00",
                "imgLink": "assets/img/events/Théâtre du Rond-Point.jpg",
                "objectType": "event",
                "user_id": 3
            },
            "images": [],
            "category": {
                "id": 4,
                "name": "Téléphonie",
                "icon": "",
                "father": 21,
                "menu_id": 2,
                "created_at": "2017-12-19 00:00:00",
                "updated_at": "2017-12-12 00:00:00"
            },
            "user": {
                "id": 2,
                "firstName": "Fakhreddine",
                "lastName": "GH1",
                "adress": "Ariana essoughra",
                "username": "FG1_client",
                "email": "client@esprit.tn",
                "tel1": "+2165848675",
                "tel2": "+2165454825",
                "deliveryAdress": "Ariana essoughra ,Ariana",
                "role": "client",
                "image_id": 18,
                "created_at": "2017-12-01 20:57:57",
                "updated_at": "2017-12-01 20:57:57"
            }
        },
        {
            "id": 4,
            "created_at": "2017-11-16 10:02:24",
            "updated_at": "2017-11-16 10:02:24",
            "title": "dîner-croisière rythmé par un orchestre live",
            "description": "Embarquez pour un inoubliable dîner-croisière rythmé par un orchestre live. Un menu d’exception sublime la gastronomie française - amuse-bouches, foie gras de canard caramélisé et fumé, langoustines, château filet, tarte croustillante à la vanille tandis qu’une balade fluviale de 2h15 fait découvrir, depuis les terrasses panoramiques du bateau les plus beaux monuments parisiens. Point culminant de la croisière : le bateau arrivé à quai, pont de l'Alma en face de la tour Eiffel, permet d'admirer la dame de fer qui à l'occasion du 14 juillet s'anime d'un splendide feu d'artifice.",
            "price": 30,
            "places": "klhkjhjk",
            "placesDispo": "lkhjkjk",
            "eventDate": "2012-11-22",
            "eventHour": "13:28:00",
            "DatePaymentDeadline": "2017-11-09 00:00:00",
            "status": "terminer",
            "category_id": 1,
            "user_id": 2,
            "image_id": 49,
            "image": {
                "id": 49,
                "created_at": "2017-12-23 00:00:00",
                "updated_at": "2017-12-20 00:00:00",
                "imgLink": "assets/img/events/dîner-croisière rythmé par un orchestre live.jpg",
                "objectType": "event",
                "user_id": 4
            },
            "images": [
                {
                    "id": 4,
                    "created_at": "2017-11-16 13:23:03",
                    "updated_at": "2017-11-16 13:23:03",
                    "imgLink": "assets/img/deals/lissage-a-la-keratine-.jpg",
                    "objectType": "deal",
                    "user_id": 3,
                    "pivot": {
                        "event_id": 4,
                        "image_id": 4,
                        "created_at": "2017-11-16 16:40:56",
                        "updated_at": "2017-11-16 16:40:56"
                    }
                },
                {
                    "id": 4,
                    "created_at": "2017-11-16 13:23:03",
                    "updated_at": "2017-11-16 13:23:03",
                    "imgLink": "assets/img/deals/lissage-a-la-keratine-.jpg",
                    "objectType": "deal",
                    "user_id": 3,
                    "pivot": {
                        "event_id": 4,
                        "image_id": 4,
                        "created_at": "2017-11-16 16:41:44",
                        "updated_at": "2017-11-16 16:41:44"
                    }
                },
                {
                    "id": 4,
                    "created_at": "2017-11-16 13:23:03",
                    "updated_at": "2017-11-16 13:23:03",
                    "imgLink": "assets/img/deals/lissage-a-la-keratine-.jpg",
                    "objectType": "deal",
                    "user_id": 3,
                    "pivot": {
                        "event_id": 4,
                        "image_id": 4,
                        "created_at": "2017-11-16 16:42:03",
                        "updated_at": "2017-11-16 16:42:03"
                    }
                },
                {
                    "id": 4,
                    "created_at": "2017-11-16 13:23:03",
                    "updated_at": "2017-11-16 13:23:03",
                    "imgLink": "assets/img/deals/lissage-a-la-keratine-.jpg",
                    "objectType": "deal",
                    "user_id": 3,
                    "pivot": {
                        "event_id": 4,
                        "image_id": 4,
                        "created_at": "2017-11-16 16:44:55",
                        "updated_at": "2017-11-16 16:44:55"
                    }
                },
                {
                    "id": 4,
                    "created_at": "2017-11-16 13:23:03",
                    "updated_at": "2017-11-16 13:23:03",
                    "imgLink": "assets/img/deals/lissage-a-la-keratine-.jpg",
                    "objectType": "deal",
                    "user_id": 3,
                    "pivot": {
                        "event_id": 4,
                        "image_id": 4,
                        "created_at": "2017-11-16 16:44:58",
                        "updated_at": "2017-11-16 16:44:58"
                    }
                },
                {
                    "id": 4,
                    "created_at": "2017-11-16 13:23:03",
                    "updated_at": "2017-11-16 13:23:03",
                    "imgLink": "assets/img/deals/lissage-a-la-keratine-.jpg",
                    "objectType": "deal",
                    "user_id": 3,
                    "pivot": {
                        "event_id": 4,
                        "image_id": 4,
                        "created_at": "2017-11-16 16:45:18",
                        "updated_at": "2017-11-16 16:45:18"
                    }
                },
                {
                    "id": 4,
                    "created_at": "2017-11-16 13:23:03",
                    "updated_at": "2017-11-16 13:23:03",
                    "imgLink": "assets/img/deals/lissage-a-la-keratine-.jpg",
                    "objectType": "deal",
                    "user_id": 3,
                    "pivot": {
                        "event_id": 4,
                        "image_id": 4,
                        "created_at": "2017-11-16 16:46:20",
                        "updated_at": "2017-11-16 16:46:20"
                    }
                },
                {
                    "id": 4,
                    "created_at": "2017-11-16 13:23:03",
                    "updated_at": "2017-11-16 13:23:03",
                    "imgLink": "assets/img/deals/lissage-a-la-keratine-.jpg",
                    "objectType": "deal",
                    "user_id": 3,
                    "pivot": {
                        "event_id": 4,
                        "image_id": 4,
                        "created_at": "2017-11-16 16:47:02",
                        "updated_at": "2017-11-16 16:47:02"
                    }
                }
            ],
            "category": {
                "id": 1,
                "name": "Loisirs & Sorties",
                "icon": "",
                "father": 21,
                "menu_id": 2,
                "created_at": "2017-12-06 00:00:00",
                "updated_at": "2017-12-21 00:00:00"
            },
            "user": {
                "id": 2,
                "firstName": "Fakhreddine",
                "lastName": "GH1",
                "adress": "Ariana essoughra",
                "username": "FG1_client",
                "email": "client@esprit.tn",
                "tel1": "+2165848675",
                "tel2": "+2165454825",
                "deliveryAdress": "Ariana essoughra ,Ariana",
                "role": "client",
                "image_id": 18,
                "created_at": "2017-12-01 20:57:57",
                "updated_at": "2017-12-01 20:57:57"
            }
        },
        {
            "id": 5,
            "created_at": "2017-11-16 10:02:25",
            "updated_at": "2017-11-16 10:02:25",
            "title": "Running",
            "description": "Pour commencer le mois du bon pied, les amateurs de running se retrouvent dès le 5 mars  C’est le top départ du Fitbit semi-marathon de Paris, qui rassemble près de 40 000 coureurs le 5 mars pour un trajet de 21,1 km au Bois de Vincennes. Le 16 mars, le monument le plus emblématique de la capitale entre, lui aussi, dans la course avec la Verticale de la Tour Eiffel. Le défi à relever : monter le plus rapidement possible les 1 665 marches de la Dame de fer !  Avril reste dans le rythme : le 9, c’est parti pour la 41e édition du Schneider Electric Marathon de Paris, l’une des courses les plus célèbres au monde, et qui a attiré 57 000 participants en 2016. Elle offre un parcours de 42,195 km reliant les grands sites touristiques de la capitale : les Champs-Élysées, la Concorde, la tour Eiffel…",
            "price": 10,
            "places": "klhkjhjk",
            "placesDispo": "lkhjkjk",
            "eventDate": "2013-11-22",
            "eventHour": "13:28:00",
            "DatePaymentDeadline": "2017-11-09 00:00:00",
            "status": "terminer",
            "category_id": 1,
            "user_id": 2,
            "image_id": 50,
            "image": {
                "id": 50,
                "created_at": "2017-12-23 00:00:00",
                "updated_at": "2017-12-20 00:00:00",
                "imgLink": "assets/img/events/Pour une soirée très romantique.jpg",
                "objectType": "event",
                "user_id": 4
            },
            "images": [
                {
                    "id": 5,
                    "created_at": "2017-11-16 13:23:05",
                    "updated_at": "2017-11-16 13:23:05",
                    "imgLink": "assets/img/deals/offre-pour-hommes-lissage-a-la-keratine-.jpg",
                    "objectType": "deal",
                    "user_id": 3,
                    "pivot": {
                        "event_id": 5,
                        "image_id": 5,
                        "created_at": "2017-11-16 14:24:08",
                        "updated_at": "2017-11-16 14:24:08"
                    }
                },
                {
                    "id": 4,
                    "created_at": "2017-11-16 13:23:03",
                    "updated_at": "2017-11-16 13:23:03",
                    "imgLink": "assets/img/deals/lissage-a-la-keratine-.jpg",
                    "objectType": "deal",
                    "user_id": 3,
                    "pivot": {
                        "event_id": 5,
                        "image_id": 4,
                        "created_at": "2017-11-16 16:39:45",
                        "updated_at": "2017-11-16 16:39:45"
                    }
                }
            ],
            "category": {
                "id": 1,
                "name": "Loisirs & Sorties",
                "icon": "",
                "father": 21,
                "menu_id": 2,
                "created_at": "2017-12-06 00:00:00",
                "updated_at": "2017-12-21 00:00:00"
            },
            "user": {
                "id": 2,
                "firstName": "Fakhreddine",
                "lastName": "GH1",
                "adress": "Ariana essoughra",
                "username": "FG1_client",
                "email": "client@esprit.tn",
                "tel1": "+2165848675",
                "tel2": "+2165454825",
                "deliveryAdress": "Ariana essoughra ,Ariana",
                "role": "client",
                "image_id": 18,
                "created_at": "2017-12-01 20:57:57",
                "updated_at": "2017-12-01 20:57:57"
            }
        },
        {
            "id": 6,
            "created_at": "2017-11-16 10:02:26",
            "updated_at": "2017-11-16 10:02:26",
            "title": "prestigieux concours de saut d’obstacles",
            "description": "Rendez-vous du 17 au 19 mars pour la 8e édition du Saut Hermès, le prestigieux concours de saut d’obstacles qui réunit les meilleures montures du monde entier dans le cadre prestigieux du Grand Palais. En mars, les Dimanche au Galop s’installent pendant près d’un mois aux hippodromes d’Auteuil et de Saint-Cloud.",
            "price": 4,
            "places": "klhkjhjk",
            "placesDispo": "lkhjkjk",
            "eventDate": "2014-11-22",
            "eventHour": "13:28:00",
            "DatePaymentDeadline": "2017-11-09 00:00:00",
            "status": "terminer",
            "category_id": 1,
            "user_id": 2,
            "image_id": 51,
            "image": {
                "id": 51,
                "created_at": "2017-12-23 00:00:00",
                "updated_at": "2017-12-20 00:00:00",
                "imgLink": "assets/img/events/Running.jpg",
                "objectType": "event",
                "user_id": 4
            },
            "images": [
                {
                    "id": 8,
                    "created_at": "2017-11-16 13:23:08",
                    "updated_at": "2017-11-16 13:23:08",
                    "imgLink": "assets/img/deals/pack-site-web-vitrine.jpg",
                    "objectType": "deal",
                    "user_id": 3,
                    "pivot": {
                        "event_id": 6,
                        "image_id": 8,
                        "created_at": "2017-11-08 00:00:00",
                        "updated_at": "2017-11-14 00:00:00"
                    }
                }
            ],
            "category": {
                "id": 1,
                "name": "Loisirs & Sorties",
                "icon": "",
                "father": 21,
                "menu_id": 2,
                "created_at": "2017-12-06 00:00:00",
                "updated_at": "2017-12-21 00:00:00"
            },
            "user": {
                "id": 2,
                "firstName": "Fakhreddine",
                "lastName": "GH1",
                "adress": "Ariana essoughra",
                "username": "FG1_client",
                "email": "client@esprit.tn",
                "tel1": "+2165848675",
                "tel2": "+2165454825",
                "deliveryAdress": "Ariana essoughra ,Ariana",
                "role": "client",
                "image_id": 18,
                "created_at": "2017-12-01 20:57:57",
                "updated_at": "2017-12-01 20:57:57"
            }
        },
        {
            "id": 7,
            "created_at": "2017-11-16 10:02:28",
            "updated_at": "2017-11-16 10:02:28",
            "title": "le festival de création musicale de Radio France ",
            "description": "En ce début d’année, la maison de la Radio résonne au son des musiques de notre temps avec Présences, le festival de création musicale de Radio France qui fête sa 26e édition du 10 au 19 février.\n\nQuant aux amoureux de belles voitures, ils se donnent rendez-vous à Rétromobile, le Salon international des voitures de collection (du 8 au 12 février).\n\nL’art aussi tient salon ! Du 15 au 19 février, Art Capital vous invite à découvrir 2 500 artistes sous la Nef du Grand Palais. Et si tout cela vous a donné la fièvre acheteuse, vous pouvez « shopper arty » à tout prix au Grand Salon d’art abordable à la Bellevilloise (du 17 au 19 février). Au choix, quelque 400 œuvres d’art de 50 à 5 000 €.",
            "price": 2.6,
            "places": "klhkjhjk",
            "placesDispo": "lkhjkjk",
            "eventDate": "2015-11-22",
            "eventHour": "13:28:00",
            "DatePaymentDeadline": "2017-11-09 00:00:00",
            "status": "terminer",
            "category_id": 1,
            "user_id": 2,
            "image_id": 52,
            "image": {
                "id": 52,
                "created_at": "2017-12-23 00:00:00",
                "updated_at": "2017-12-20 00:00:00",
                "imgLink": "assets/img/events/prestigieux concours de saut d’obstacles.jpg",
                "objectType": "event",
                "user_id": 4
            },
            "images": [],
            "category": {
                "id": 1,
                "name": "Loisirs & Sorties",
                "icon": "",
                "father": 21,
                "menu_id": 2,
                "created_at": "2017-12-06 00:00:00",
                "updated_at": "2017-12-21 00:00:00"
            },
            "user": {
                "id": 2,
                "firstName": "Fakhreddine",
                "lastName": "GH1",
                "adress": "Ariana essoughra",
                "username": "FG1_client",
                "email": "client@esprit.tn",
                "tel1": "+2165848675",
                "tel2": "+2165454825",
                "deliveryAdress": "Ariana essoughra ,Ariana",
                "role": "client",
                "image_id": 18,
                "created_at": "2017-12-01 20:57:57",
                "updated_at": "2017-12-01 20:57:57"
            }
        },
        {
            "id": 9,
            "created_at": "2017-12-02 01:09:37",
            "updated_at": "2017-12-02 01:09:37",
            "title": "Star Tours l'Aventure Continue",
            "description": "Laissez-vous tenter par le monde merveilleux de Disneyland® Paris qui fête son 25e anniversaire dès le 26 mars 2017. Au programme des festivités : les nouvelles attractions \"Star Tours l'Aventure Continue\" et \"Star Wars Hyperspace Mountain\", la Disney Stars on Parade avec des chars et costumes inédits, des spectacles, le nouveau son et lumières \"Disney Illuminations\", une grande cérémonie d'anniversaire orchestrée par Mickey en personne et bien d'autres surprises !\n\nDu 4 au 9 avril, Disney sur Glace fait son grand retour au Zénith Paris avec La Reine des Neiges. Un spectacle féerique qui va enchanter petits et grands.\n\nEnvie d'une balade insolite et poétique dans les rues de Paris ? Ne manquez pas Troublantes Apparences, une série de spectacles de marionnettes organisés dans les vitrines de plusieurs boutiques de la capitale. Un lèche-vitrines ludique et artistique à voir gratuitement du 20 au 22 avril.\n\nLes petits sont aussi à l'honneur à Bercy Village avec le festival Kids, Let’s Play, qui propose une journée entièrement dédiée aux enfants avec des ateliers loufoques, des spectacles et une mini-boum !\nCôté expos, il y a le choix. Présentés au Palais de la découverte jusqu'au 27 août, Faites vos jeux ! Quand les maths s'en mêlent et Viral. Du microbe au fou rire, tout s’attrape vont ravir les scientifiques en herbe. Passionné par l'Histoire ? Faites un retour à l'époque médiévale à la Cité des Sciences et de l'Industrie avec l'exposition Quoi de neuf au Moyen Âge ? (jusqu'au 6 août).\n\nPour les amateurs d’art en culottes courtes, rendez-vous à la Petite Galerie au Louvre. Pour sa deuxième saison, l'espace d’éducation artistique et culturelle du musée du Louvre invite les jeunes visiteurs et leurs parents à explorer (jusqu'au 3 juillet) la représentation du Corps en mouvement à travers 70 œuvres.\n\nSans oublier Pâques, le dimanche 16 avril ! À cette occasion, de nombreuses chasses aux œufs sont organisées un peu partout dans la capitale. N'oubliez pas les paniers ! \n\nPour en savoir plus, consultez notre dossier Pâques à Paris\n\nFêtes foraines",
            "price": 1,
            "places": "klhkjhjk",
            "placesDispo": "lkhjkjk",
            "eventDate": "2017-11-22",
            "eventHour": "13:28:00",
            "DatePaymentDeadline": "2017-11-09 00:00:00",
            "status": "terminer",
            "category_id": 1,
            "user_id": 7,
            "image_id": 53,
            "image": {
                "id": 53,
                "created_at": "2017-12-23 00:00:00",
                "updated_at": "2017-12-20 00:00:00",
                "imgLink": "assets/img/events/le festival de création musicale de Radio France .jpg",
                "objectType": "event",
                "user_id": 4
            },
            "images": [],
            "category": {
                "id": 1,
                "name": "Loisirs & Sorties",
                "icon": "",
                "father": 21,
                "menu_id": 2,
                "created_at": "2017-12-06 00:00:00",
                "updated_at": "2017-12-21 00:00:00"
            },
            "user": {
                "id": 7,
                "firstName": "Oussema",
                "lastName": "GH1",
                "adress": "Ariana essoughra",
                "username": "FG1_client",
                "email": "client1@esprit.tn",
                "tel1": "+2165848672",
                "tel2": "+2165454825",
                "deliveryAdress": "Ariana essoughra, Nour JAAFAR",
                "role": "client",
                "image_id": 19,
                "created_at": "2017-12-01 21:25:36",
                "updated_at": "2017-12-01 21:25:36"
            }
        },
        {
            "id": 10,
            "created_at": "2017-12-20 00:00:00",
            "updated_at": "2017-12-28 00:00:00",
            "title": " Les Choristes aux Folies Bergère",
            "description": "Paris adore pousser la chansonnette ! En février, trois nouvelles comédies musicales sont au programme.\n\nÀ partir du 9 février, Saturday Night Fever s’installe au Palais des Sports\nÀ partir du 23 février, découvrez Les Choristes aux Folies Bergère\nPriscilla, folle du désert au Casino de Paris dès le 25 février\n\nAvis aux amateurs d’opéra 2 chefs-d’œuvre de Mozart sont à l’honneur ce mois-ci : La flûte enchantée à l’Opéra Bastille (jusqu’au 23 février) et Cosi fan tutte au Palais Garnier (jusqu’au 19 février).",
            "price": 3,
            "places": "VQSDVQDVQSDV",
            "placesDispo": "55",
            "eventDate": "2017-12-27",
            "eventHour": "00:54:00",
            "DatePaymentDeadline": "2017-12-20 00:00:00",
            "status": "Encours",
            "category_id": 3,
            "user_id": 3,
            "image_id": 54,
            "image": {
                "id": 54,
                "created_at": "2017-12-23 00:00:00",
                "updated_at": "2017-12-20 00:00:00",
                "imgLink": "assets/img/events/Star Tours l'Aventure Continue.jpg",
                "objectType": "event",
                "user_id": 4
            },
            "images": [],
            "category": {
                "id": 3,
                "name": " MODE & ACCESSOIRES",
                "icon": "",
                "father": 21,
                "menu_id": 3,
                "created_at": "2017-12-21 00:00:00",
                "updated_at": "2017-12-13 00:00:00"
            },
            "user": {
                "id": 3,
                "firstName": "Alaeddine",
                "lastName": "GH1",
                "adress": "Ariana essoughra",
                "username": "FG1_client",
                "email": "client@esprit.tn",
                "tel1": "+2165848675",
                "tel2": "+2165454825",
                "deliveryAdress": "Ariana essoughra ,Ariana",
                "role": "client",
                "image_id": 19,
                "created_at": "2017-12-01 21:00:38",
                "updated_at": "2017-12-01 21:00:38"
            }
        },
        {
            "id": 11,
            "created_at": "2017-12-20 00:00:00",
            "updated_at": "2017-12-28 00:00:00",
            "title": "Journée internationale de l’ours polaire",
            "description": "Février, c’est aussi le mois des enfants ! En effet, les bambins franciliens sont en congés pour deux semaines. Comment les occuper ? Pas d’inquiétude, nous avons plein d’idées sorties à vous proposer !\n\nS’ils aiment les animaux, il y a l’incontournable Bébés animaux à la Cité des Sciences et de l’Industrie (jusqu’au 20 août), mais aussi Espèces d’ours ! au Muséum d’histoire Naturelle (jusqu’au 19 juin). Une expo qui est un joli clin d'œil à la Journée internationale de l’ours polaire le 27 février.\n\nPour les fans de dessins animés, direction le musée Art ludique, qui propose une exposition sur le grand maître américain du cartoon, \"l'oncle Walt\" : L’Art des Studios d’Animation Walt Disney, Le Mouvement par Nature (jusqu’au 5 mars).",
            "price": 6,
            "places": "VQSDVQDVQSDV",
            "placesDispo": "55",
            "eventDate": "2017-12-27",
            "eventHour": "00:54:00",
            "DatePaymentDeadline": "2017-12-20 00:00:00",
            "status": "Encours",
            "category_id": 3,
            "user_id": 3,
            "image_id": 55,
            "image": {
                "id": 55,
                "created_at": "2017-12-23 00:00:00",
                "updated_at": "2017-12-20 00:00:00",
                "imgLink": "assets/img/events/Les Choristes aux Folies Bergère.jpg",
                "objectType": "event",
                "user_id": 4
            },
            "images": [],
            "category": {
                "id": 3,
                "name": " MODE & ACCESSOIRES",
                "icon": "",
                "father": 21,
                "menu_id": 3,
                "created_at": "2017-12-21 00:00:00",
                "updated_at": "2017-12-13 00:00:00"
            },
            "user": {
                "id": 3,
                "firstName": "Alaeddine",
                "lastName": "GH1",
                "adress": "Ariana essoughra",
                "username": "FG1_client",
                "email": "client@esprit.tn",
                "tel1": "+2165848675",
                "tel2": "+2165454825",
                "deliveryAdress": "Ariana essoughra ,Ariana",
                "role": "client",
                "image_id": 19,
                "created_at": "2017-12-01 21:00:38",
                "updated_at": "2017-12-01 21:00:38"
            }
        },
        {
            "id": 12,
            "created_at": "2017-12-20 00:00:00",
            "updated_at": "2017-12-28 00:00:00",
            "title": "Cirque Bouglione - Exploit",
            "description": "Etape incontournable de la rentrée sur piste, le cirque Bouglione accueille le public dans son antre (le Cirque d'Hiver) pour Exploit, son tout nouveau spectacle. Comme chaque année, acrobaties, jonglage, magies, animaux... et éclats de rire sont au rendez-vous.",
            "price": 5,
            "places": "VQSDVQDVQSDV",
            "placesDispo": "55",
            "eventDate": "2017-12-27",
            "eventHour": "00:54:00",
            "DatePaymentDeadline": "2017-12-20 00:00:00",
            "status": "Encours",
            "category_id": 3,
            "user_id": 3,
            "image_id": 56,
            "image": {
                "id": 56,
                "created_at": "2017-12-23 00:00:00",
                "updated_at": "2017-12-20 00:00:00",
                "imgLink": "assets/img/events/Journée internationale de l’ours polaire.jpg",
                "objectType": "event",
                "user_id": 4
            },
            "images": [],
            "category": {
                "id": 3,
                "name": " MODE & ACCESSOIRES",
                "icon": "",
                "father": 21,
                "menu_id": 3,
                "created_at": "2017-12-21 00:00:00",
                "updated_at": "2017-12-13 00:00:00"
            },
            "user": {
                "id": 3,
                "firstName": "Alaeddine",
                "lastName": "GH1",
                "adress": "Ariana essoughra",
                "username": "FG1_client",
                "email": "client@esprit.tn",
                "tel1": "+2165848675",
                "tel2": "+2165454825",
                "deliveryAdress": "Ariana essoughra ,Ariana",
                "role": "client",
                "image_id": 19,
                "created_at": "2017-12-01 21:00:38",
                "updated_at": "2017-12-01 21:00:38"
            }
        },
        {
            "id": 13,
            "created_at": "2017-12-20 00:00:00",
            "updated_at": "2017-12-28 00:00:00",
            "title": "Cirque Bormann Moreno",
            "description": "Installé toute l'année depuis 30 ans dans la capitale, le Cirque Bormann Moreno fait partie de ces cirques qui ont conservé leur chapiteau de cirque traditionnel et qui cultive la proximité avec le public. Au Cirque Bormann Moreno on travaille en famille, tout le monde met la main à la pâte pour satisfaire le public. Acrobates, fil de féristes, trapézistes, jongleurs, clowns, animaux exotiques... sont au programme de ce \"Cirque de la belle époque\"",
            "price": 4,
            "places": "VQSDVQDVQSDV",
            "placesDispo": "55",
            "eventDate": "2017-12-27",
            "eventHour": "00:54:00",
            "DatePaymentDeadline": "2017-12-20 00:00:00",
            "status": "Encours",
            "category_id": 3,
            "user_id": 3,
            "image_id": 57,
            "image": {
                "id": 57,
                "created_at": "2017-12-23 00:00:00",
                "updated_at": "2017-12-20 00:00:00",
                "imgLink": "assets/img/events/Cirque-d'Hiver-Bouglione-intérieur.jpg",
                "objectType": "event",
                "user_id": 4
            },
            "images": [],
            "category": {
                "id": 3,
                "name": " MODE & ACCESSOIRES",
                "icon": "",
                "father": 21,
                "menu_id": 3,
                "created_at": "2017-12-21 00:00:00",
                "updated_at": "2017-12-13 00:00:00"
            },
            "user": {
                "id": 3,
                "firstName": "Alaeddine",
                "lastName": "GH1",
                "adress": "Ariana essoughra",
                "username": "FG1_client",
                "email": "client@esprit.tn",
                "tel1": "+2165848675",
                "tel2": "+2165454825",
                "deliveryAdress": "Ariana essoughra ,Ariana",
                "role": "client",
                "image_id": 19,
                "created_at": "2017-12-01 21:00:38",
                "updated_at": "2017-12-01 21:00:38"
            }
        },
        {
            "id": 14,
            "created_at": "2017-12-20 00:00:00",
            "updated_at": "2017-12-28 00:00:00",
            "title": " Foire du Trône",
            "description": "Au printemps, les fêtes foraines reviennent sur le devant de la scène ! Très attendue par les enfants, la Foire du Trône réinvestit la pelouse de Reuilly du 31 mars au 5 juin. Considérée comme la plus importante manifestation foraine d’Europe, elle propose un grand choix d’attractions et plein de surprises…",
            "price": 1,
            "places": "VQSDVQDVQSDV",
            "placesDispo": "55",
            "eventDate": "2017-12-27",
            "eventHour": "00:54:00",
            "DatePaymentDeadline": "2017-12-20 00:00:00",
            "status": "Encours",
            "category_id": 3,
            "user_id": 3,
            "image_id": 58,
            "image": {
                "id": 58,
                "created_at": "2017-12-23 00:00:00",
                "updated_at": "2017-12-20 00:00:00",
                "imgLink": "assets/img/events/Foire du Trône.jpg",
                "objectType": "event",
                "user_id": 4
            },
            "images": [],
            "category": {
                "id": 3,
                "name": " MODE & ACCESSOIRES",
                "icon": "",
                "father": 21,
                "menu_id": 3,
                "created_at": "2017-12-21 00:00:00",
                "updated_at": "2017-12-13 00:00:00"
            },
            "user": {
                "id": 3,
                "firstName": "Alaeddine",
                "lastName": "GH1",
                "adress": "Ariana essoughra",
                "username": "FG1_client",
                "email": "client@esprit.tn",
                "tel1": "+2165848675",
                "tel2": "+2165454825",
                "deliveryAdress": "Ariana essoughra ,Ariana",
                "role": "client",
                "image_id": 19,
                "created_at": "2017-12-01 21:00:38",
                "updated_at": "2017-12-01 21:00:38"
            }
        },
        {
            "id": 15,
            "created_at": "2017-12-20 00:00:00",
            "updated_at": "2017-12-28 00:00:00",
            "title": "festival Omnivore à la Maison de la Mutualité",
            "description": "Au printemps, les festivals sont aussi de la partie. Musique, art, gastronomie… à vous de choisir. On commence par la 12e édition du festival Omnivore à la Maison de la Mutualité les 5, 6 et 7 mars. Au menu, 3 jours entièrement dédiés à la jeune cuisine avec des master-class, des dîners, des ateliers, des dégustations…",
            "price": 0,
            "places": "VQSDVQDVQSDV",
            "placesDispo": "55",
            "eventDate": "2017-12-27",
            "eventHour": "00:54:00",
            "DatePaymentDeadline": "2017-12-20 00:00:00",
            "status": "Encours",
            "category_id": 3,
            "user_id": 3,
            "image_id": 59,
            "image": {
                "id": 59,
                "created_at": "2017-12-23 00:00:00",
                "updated_at": "2017-12-20 00:00:00",
                "imgLink": "assets/img/events/Foire du Trône.jpg",
                "objectType": "event",
                "user_id": 4
            },
            "images": [],
            "category": {
                "id": 3,
                "name": " MODE & ACCESSOIRES",
                "icon": "",
                "father": 21,
                "menu_id": 3,
                "created_at": "2017-12-21 00:00:00",
                "updated_at": "2017-12-13 00:00:00"
            },
            "user": {
                "id": 3,
                "firstName": "Alaeddine",
                "lastName": "GH1",
                "adress": "Ariana essoughra",
                "username": "FG1_client",
                "email": "client@esprit.tn",
                "tel1": "+2165848675",
                "tel2": "+2165454825",
                "deliveryAdress": "Ariana essoughra ,Ariana",
                "role": "client",
                "image_id": 19,
                "created_at": "2017-12-01 21:00:38",
                "updated_at": "2017-12-01 21:00:38"
            }
        },
        {
            "id": 16,
            "created_at": "2017-12-20 00:00:00",
            "updated_at": "2017-12-28 00:00:00",
            "title": "Feu d'artifice du 14 juillet",
            "description": "Spectacle incontournable de cette journée de Fête Nationale à Paris, le feu d'artifice est l'événement du 14 juillet le plus attendu. Comme l'an dernier il sera tiré depuis la tour Eiffel et les jardins du Trocadéro. \n\nCette année encore le feu d'artifice sera flamboyant et ses multiples couleurs vont crépiter harmonieusement dans le ciel parisien. Le show pyrotechnique du 14 juillet à la tour Eiffel, éblouissant de précision et de virtuosité nous offre chaque année toujours plus d'émotions.\n\nLe public est invité à s’installer sur le Champ-de-Mars.\nHoraire de début du feu d’artifice du 14 juillet 2017 : à partir de 23h, pour une durée d'environ 30 minutes (sous réserve)",
            "price": 0,
            "places": "VQSDVQDVQSDV",
            "placesDispo": "55",
            "eventDate": "2017-12-27",
            "eventHour": "00:54:00",
            "DatePaymentDeadline": "2017-12-20 00:00:00",
            "status": "Encours",
            "category_id": 3,
            "user_id": 3,
            "image_id": 60,
            "image": {
                "id": 60,
                "created_at": "2017-12-23 00:00:00",
                "updated_at": "2017-12-20 00:00:00",
                "imgLink": "assets/img/events/festival Omnivore à la Maison de la Mutualité.jpg",
                "objectType": "event",
                "user_id": 4
            },
            "images": [],
            "category": {
                "id": 3,
                "name": " MODE & ACCESSOIRES",
                "icon": "",
                "father": 21,
                "menu_id": 3,
                "created_at": "2017-12-21 00:00:00",
                "updated_at": "2017-12-13 00:00:00"
            },
            "user": {
                "id": 3,
                "firstName": "Alaeddine",
                "lastName": "GH1",
                "adress": "Ariana essoughra",
                "username": "FG1_client",
                "email": "client@esprit.tn",
                "tel1": "+2165848675",
                "tel2": "+2165454825",
                "deliveryAdress": "Ariana essoughra ,Ariana",
                "role": "client",
                "image_id": 19,
                "created_at": "2017-12-01 21:00:38",
                "updated_at": "2017-12-01 21:00:38"
            }
        },
        {
            "id": 17,
            "created_at": "2017-12-20 00:00:00",
            "updated_at": "2017-12-28 00:00:00",
            "title": "ateliers pédagogiques",
            "description": "Rendez-vous incontournable, du 26 au 30 octobre la Kidexpo à la Porte de Versailles propose une centaine d’ateliers pédagogiques, des découvertes inédites de jouets et des stands à destination des parents. Les amoureux et amoureuses de superhéros se retrouvent à la Comic Con où de nombreuses surprises les attendent, avec ses invités de marque et ses cosplayers. Enfin, manèges et attractions à sensations fortes attendent petits et grands dans l’atmosphère bon enfant de la Fête au Bois de Boulogne durant tout le mois de septembre.",
            "price": 2,
            "places": "VQSDVQDVQSDV",
            "placesDispo": "55",
            "eventDate": "2017-12-27",
            "eventHour": "00:54:00",
            "DatePaymentDeadline": "2017-12-20 00:00:00",
            "status": "Encours",
            "category_id": 3,
            "user_id": 3,
            "image_id": 61,
            "image": {
                "id": 61,
                "created_at": "2017-12-23 00:00:00",
                "updated_at": "2017-12-20 00:00:00",
                "imgLink": "assets/img/events/Feu d'artifice du 14 juillet.JPG",
                "objectType": "event",
                "user_id": 4
            },
            "images": [],
            "category": {
                "id": 3,
                "name": " MODE & ACCESSOIRES",
                "icon": "",
                "father": 21,
                "menu_id": 3,
                "created_at": "2017-12-21 00:00:00",
                "updated_at": "2017-12-13 00:00:00"
            },
            "user": {
                "id": 3,
                "firstName": "Alaeddine",
                "lastName": "GH1",
                "adress": "Ariana essoughra",
                "username": "FG1_client",
                "email": "client@esprit.tn",
                "tel1": "+2165848675",
                "tel2": "+2165454825",
                "deliveryAdress": "Ariana essoughra ,Ariana",
                "role": "client",
                "image_id": 19,
                "created_at": "2017-12-01 21:00:38",
                "updated_at": "2017-12-01 21:00:38"
            }
        },
        {
            "id": 18,
            "created_at": "2017-12-20 00:00:00",
            "updated_at": "2017-12-28 00:00:00",
            "title": "rentrée musicale",
            "description": "Tous les dimanches de septembre, l’Opéra côté cour fait danser les rues de Bercy Village aux rythmes des célèbres opéras. Un moment d’émerveillement à passer en famille. Pour une rentrée musicale, direction la Philharmonie de Paris qui propose des lectures et ballades musicales, mais aussi le festivalJazz à la Villette qui présentent des concerts et ateliers \"for kids\".",
            "price": 0,
            "places": "VQSDVQDVQSDV",
            "placesDispo": "55",
            "eventDate": "2017-12-27",
            "eventHour": "00:54:00",
            "DatePaymentDeadline": "2017-12-20 00:00:00",
            "status": "Encours",
            "category_id": 3,
            "user_id": 3,
            "image_id": 62,
            "image": {
                "id": 62,
                "created_at": "2017-12-23 00:00:00",
                "updated_at": "2017-12-20 00:00:00",
                "imgLink": "assets/img/events/ateliers pédagogiques.png",
                "objectType": "event",
                "user_id": 4
            },
            "images": [],
            "category": {
                "id": 3,
                "name": " MODE & ACCESSOIRES",
                "icon": "",
                "father": 21,
                "menu_id": 3,
                "created_at": "2017-12-21 00:00:00",
                "updated_at": "2017-12-13 00:00:00"
            },
            "user": {
                "id": 3,
                "firstName": "Alaeddine",
                "lastName": "GH1",
                "adress": "Ariana essoughra",
                "username": "FG1_client",
                "email": "client@esprit.tn",
                "tel1": "+2165848675",
                "tel2": "+2165454825",
                "deliveryAdress": "Ariana essoughra ,Ariana",
                "role": "client",
                "image_id": 19,
                "created_at": "2017-12-01 21:00:38",
                "updated_at": "2017-12-01 21:00:38"
            }
        },
        {
            "id": 19,
            "created_at": "2017-12-20 00:00:00",
            "updated_at": "2017-12-28 00:00:00",
            "title": "ateliers ludiques",
            "description": "On apprend mieux en s’amusant, c’est bien connu. La rentrée culturelle offre de nombreuses expositions organisées à la fois pour les adultes et les enfants, des visites guidées et des ateliers ludiques. En avant les savoirs et les sensations ! Ces expos sont des récréations originales pour le jeune public, elles font la part belle à l’invention et aiguisent la curiosité des enfants, mais aussi de leurs parents.\n\nValérian et Laureline, l’œuvre qui a révolutionné la science-fiction dessinée fait rêver petits et grands à la Cité des Sciences et de l’Industrie. Au Musée en herbe, l’exposition événement \"Hello My Game Is …\" sur l’œuvre du street-artistInvader, redémarre à la rentrée grâce à un succès retentissant (visites guidées en anglais). Le musée de l’Homme, le musée des Arts Ludiques et le musée des Arts Forains accueillent eux-aussi le jeune public.",
            "price": 5,
            "places": "VQSDVQDVQSDV",
            "placesDispo": "55",
            "eventDate": "2017-12-27",
            "eventHour": "00:54:00",
            "DatePaymentDeadline": "2017-12-20 00:00:00",
            "status": "Encours",
            "category_id": 3,
            "user_id": 3,
            "image_id": 63,
            "image": {
                "id": 63,
                "created_at": "2017-12-23 00:00:00",
                "updated_at": "2017-12-20 00:00:00",
                "imgLink": "assets/img/events/rentrée musicale.jpg",
                "objectType": "event",
                "user_id": 4
            },
            "images": [],
            "category": {
                "id": 3,
                "name": " MODE & ACCESSOIRES",
                "icon": "",
                "father": 21,
                "menu_id": 3,
                "created_at": "2017-12-21 00:00:00",
                "updated_at": "2017-12-13 00:00:00"
            },
            "user": {
                "id": 3,
                "firstName": "Alaeddine",
                "lastName": "GH1",
                "adress": "Ariana essoughra",
                "username": "FG1_client",
                "email": "client@esprit.tn",
                "tel1": "+2165848675",
                "tel2": "+2165454825",
                "deliveryAdress": "Ariana essoughra ,Ariana",
                "role": "client",
                "image_id": 19,
                "created_at": "2017-12-01 21:00:38",
                "updated_at": "2017-12-01 21:00:38"
            }
        },
        {
            "id": 20,
            "created_at": "2017-12-20 00:00:00",
            "updated_at": "2017-12-28 00:00:00",
            "title": " cirque Bouglione ",
            "description": "Les représentations de cirque sont des moments d’émerveillement pour petits et grands. Acrobaties, jongleries, baguette magique, nez rouge et costumes à plumes font des spectacles de cirque des souvenirs impérissables.\n\nEn cette rentrée, les clowns, les trapézistes et les jongleurs reprennent du service ! L’historique cirque Bouglione présente son nouveau spectacle Exploit, le cirque Alexis Gruss revient avec Quintessenceet ses numéros d’acrobaties aériennes et le cirque Eloize propose au public parisien un show inhabituel et poétique avec Cirkopolis. Enfin, les incontournables cirque Romanès et cirque Bormann Moreno sont une nouvelle fois de la partie.",
            "price": 20,
            "places": "VQSDVQDVQSDV",
            "placesDispo": "55",
            "eventDate": "2017-12-27",
            "eventHour": "00:54:00",
            "DatePaymentDeadline": "2017-12-20 00:00:00",
            "status": "Encours",
            "category_id": 3,
            "user_id": 3,
            "image_id": 65,
            "image": {
                "id": 65,
                "created_at": "2017-12-23 00:00:00",
                "updated_at": "2017-12-20 00:00:00",
                "imgLink": "assets/img/events/cirque Bouglione .jpg",
                "objectType": "event",
                "user_id": 4
            },
            "images": [],
            "category": {
                "id": 3,
                "name": " MODE & ACCESSOIRES",
                "icon": "",
                "father": 21,
                "menu_id": 3,
                "created_at": "2017-12-21 00:00:00",
                "updated_at": "2017-12-13 00:00:00"
            },
            "user": {
                "id": 3,
                "firstName": "Alaeddine",
                "lastName": "GH1",
                "adress": "Ariana essoughra",
                "username": "FG1_client",
                "email": "client@esprit.tn",
                "tel1": "+2165848675",
                "tel2": "+2165454825",
                "deliveryAdress": "Ariana essoughra ,Ariana",
                "role": "client",
                "image_id": 19,
                "created_at": "2017-12-01 21:00:38",
                "updated_at": "2017-12-01 21:00:38"
            }
        }
    ]